module go-rentel

require (
	github.com/denisenkom/go-mssqldb v0.0.0-20191001013358-cfbb681360f0 // indirect
	github.com/dgrijalva/jwt-go v3.2.0+incompatible
	github.com/erikstmartin/go-testdb v0.0.0-20160219214506-8d10e4a1bae5 // indirect
	github.com/go-sql-driver/mysql v1.4.1 // indirect
	github.com/gorilla/context v1.1.1 // indirect
	github.com/gorilla/mux v1.6.2
	github.com/jinzhu/gorm v1.9.1
	github.com/jinzhu/inflection v0.0.0-20180308033659-04140366298a // indirect
	github.com/jinzhu/now v1.0.1 // indirect
	github.com/joho/godotenv v1.3.0
	github.com/lib/pq v1.0.0 // indirect
	github.com/mattn/go-sqlite3 v1.11.0 // indirect
	golang.org/x/crypto v0.0.0-20190605123033-f99c8df09eb5
	google.golang.org/appengine v1.6.4 // indirect
)
